-- Merging decision tree log ---
manifest
ADDED from C:\Users\cseuser\Desktop\CQAndroid\Fall 2017\RoomQuest\app\src\main\AndroidManifest.xml:2:1-46:12
INJECTED from C:\Users\cseuser\Desktop\CQAndroid\Fall 2017\RoomQuest\app\src\main\AndroidManifest.xml:2:1-46:12
INJECTED from C:\Users\cseuser\Desktop\CQAndroid\Fall 2017\RoomQuest\app\src\main\AndroidManifest.xml:2:1-46:12
INJECTED from C:\Users\cseuser\Desktop\CQAndroid\Fall 2017\RoomQuest\app\src\main\AndroidManifest.xml:2:1-46:12
MERGED from [com.android.support:design:25.1.0] C:\Users\cseuser\.gradle\caches\transforms-1\files-1.1\design-25.1.0.aar\6cbe9dd9380f7fd58a70fe8e6e1ebc6a\AndroidManifest.xml:17:1-27:12
MERGED from [com.android.support:appcompat-v7:25.1.0] C:\Users\cseuser\.gradle\caches\transforms-1\files-1.1\appcompat-v7-25.1.0.aar\cc20c45ed3b4fbc66ee38ab1bd992488\AndroidManifest.xml:17:1-27:12
MERGED from [com.esri.arcgis.android:arcgis-android:10.2.8-1] C:\Users\cseuser\.gradle\caches\transforms-1\files-1.1\arcgis-android-10.2.8-1.aar\641591f83dcec09e2f4cfa36fff355eb\AndroidManifest.xml:2:1-13:12
MERGED from [com.google.android.gms:play-services-appindexing:8.1.0] C:\Users\cseuser\.gradle\caches\transforms-1\files-1.1\play-services-appindexing-8.1.0.aar\595b3377ce8de38b663d532b04369f5b\AndroidManifest.xml:16:1-20:12
MERGED from [com.android.support:animated-vector-drawable:25.1.0] C:\Users\cseuser\.gradle\caches\transforms-1\files-1.1\animated-vector-drawable-25.1.0.aar\a5aa2d1b8c69a69d85aabba80d6b620c\AndroidManifest.xml:17:1-24:12
MERGED from [com.android.support:support-vector-drawable:25.1.0] C:\Users\cseuser\.gradle\caches\transforms-1\files-1.1\support-vector-drawable-25.1.0.aar\a7393c21d2870115ac20bd7b9b7eecc9\AndroidManifest.xml:17:1-25:12
MERGED from [com.android.support:recyclerview-v7:25.1.0] C:\Users\cseuser\.gradle\caches\transforms-1\files-1.1\recyclerview-v7-25.1.0.aar\f6ddbe1b9817e9e3a69492cafa44f84e\AndroidManifest.xml:17:1-22:12
MERGED from [com.android.support:transition:25.1.0] C:\Users\cseuser\.gradle\caches\transforms-1\files-1.1\transition-25.1.0.aar\997892130ecd86d39adbdd7438dd0c13\AndroidManifest.xml:17:1-24:12
MERGED from [com.google.android.gms:play-services-basement:8.1.0] C:\Users\cseuser\.gradle\caches\transforms-1\files-1.1\play-services-basement-8.1.0.aar\85188ffc6afdc7065ac8076c9a8e88c6\AndroidManifest.xml:16:1-26:12
MERGED from [com.android.support:support-v4:25.1.0] C:\Users\cseuser\.gradle\caches\transforms-1\files-1.1\support-v4-25.1.0.aar\a555bc9a83eec7ab84e7fdc31b9fd982\AndroidManifest.xml:17:1-27:12
MERGED from [com.android.support:support-fragment:25.1.0] C:\Users\cseuser\.gradle\caches\transforms-1\files-1.1\support-fragment-25.1.0.aar\55696e2987c1c5b2839fc451cdf687ae\AndroidManifest.xml:17:1-27:12
MERGED from [com.android.support:support-core-ui:25.1.0] C:\Users\cseuser\.gradle\caches\transforms-1\files-1.1\support-core-ui-25.1.0.aar\1bba3bc5521d7c12dbb3de049e61aee9\AndroidManifest.xml:17:1-27:12
MERGED from [com.android.support:support-media-compat:25.1.0] C:\Users\cseuser\.gradle\caches\transforms-1\files-1.1\support-media-compat-25.1.0.aar\778ff278e6adfd6b8ffa101001a9efce\AndroidManifest.xml:17:1-27:12
MERGED from [com.android.support:support-core-utils:25.1.0] C:\Users\cseuser\.gradle\caches\transforms-1\files-1.1\support-core-utils-25.1.0.aar\7091f4269c4068db701f89d1d9652b0c\AndroidManifest.xml:17:1-27:12
MERGED from [com.android.support:support-compat:25.1.0] C:\Users\cseuser\.gradle\caches\transforms-1\files-1.1\support-compat-25.1.0.aar\9eaa915e09e6fb698761c53871eba227\AndroidManifest.xml:17:1-27:12
INJECTED from C:\Users\cseuser\Desktop\CQAndroid\Fall 2017\RoomQuest\app\src\main\AndroidManifest.xml:2:1-46:12
INJECTED from C:\Users\cseuser\Desktop\CQAndroid\Fall 2017\RoomQuest\app\src\main\AndroidManifest.xml:2:1-46:12
INJECTED from C:\Users\cseuser\Desktop\CQAndroid\Fall 2017\RoomQuest\app\src\main\AndroidManifest.xml:2:1-46:12
	package
		ADDED from C:\Users\cseuser\Desktop\CQAndroid\Fall 2017\RoomQuest\app\src\main\AndroidManifest.xml:3:5-48
		INJECTED from C:\Users\cseuser\Desktop\CQAndroid\Fall 2017\RoomQuest\app\src\main\AndroidManifest.xml
		INJECTED from C:\Users\cseuser\Desktop\CQAndroid\Fall 2017\RoomQuest\app\src\main\AndroidManifest.xml
	android:versionName
		INJECTED from C:\Users\cseuser\Desktop\CQAndroid\Fall 2017\RoomQuest\app\src\main\AndroidManifest.xml
		ADDED from C:\Users\cseuser\Desktop\CQAndroid\Fall 2017\RoomQuest\app\src\main\AndroidManifest.xml:2:1-46:12
		INJECTED from C:\Users\cseuser\Desktop\CQAndroid\Fall 2017\RoomQuest\app\src\main\AndroidManifest.xml
	android:versionCode
		INJECTED from C:\Users\cseuser\Desktop\CQAndroid\Fall 2017\RoomQuest\app\src\main\AndroidManifest.xml
		ADDED from C:\Users\cseuser\Desktop\CQAndroid\Fall 2017\RoomQuest\app\src\main\AndroidManifest.xml:2:1-46:12
		INJECTED from C:\Users\cseuser\Desktop\CQAndroid\Fall 2017\RoomQuest\app\src\main\AndroidManifest.xml
	xmlns:android
		ADDED from C:\Users\cseuser\Desktop\CQAndroid\Fall 2017\RoomQuest\app\src\main\AndroidManifest.xml:2:11-69
uses-feature#0x00020000
ADDED from C:\Users\cseuser\Desktop\CQAndroid\Fall 2017\RoomQuest\app\src\main\AndroidManifest.xml:5:5-7:35
	android:glEsVersion
		ADDED from C:\Users\cseuser\Desktop\CQAndroid\Fall 2017\RoomQuest\app\src\main\AndroidManifest.xml:6:9-41
	android:required
		ADDED from C:\Users\cseuser\Desktop\CQAndroid\Fall 2017\RoomQuest\app\src\main\AndroidManifest.xml:7:9-32
uses-permission#android.permission.ACCESS_COARSE_LOCATION
ADDED from C:\Users\cseuser\Desktop\CQAndroid\Fall 2017\RoomQuest\app\src\main\AndroidManifest.xml:9:5-81
	android:name
		ADDED from C:\Users\cseuser\Desktop\CQAndroid\Fall 2017\RoomQuest\app\src\main\AndroidManifest.xml:9:22-78
uses-permission#android.permission.ACCESS_FINE_LOCATION
ADDED from C:\Users\cseuser\Desktop\CQAndroid\Fall 2017\RoomQuest\app\src\main\AndroidManifest.xml:10:5-79
	android:name
		ADDED from C:\Users\cseuser\Desktop\CQAndroid\Fall 2017\RoomQuest\app\src\main\AndroidManifest.xml:10:22-76
uses-permission#android.permission.ACCESS_NETWORK_STATE
ADDED from C:\Users\cseuser\Desktop\CQAndroid\Fall 2017\RoomQuest\app\src\main\AndroidManifest.xml:11:5-79
	android:name
		ADDED from C:\Users\cseuser\Desktop\CQAndroid\Fall 2017\RoomQuest\app\src\main\AndroidManifest.xml:11:22-76
uses-permission#android.permission.INTERNET
ADDED from C:\Users\cseuser\Desktop\CQAndroid\Fall 2017\RoomQuest\app\src\main\AndroidManifest.xml:12:5-67
	android:name
		ADDED from C:\Users\cseuser\Desktop\CQAndroid\Fall 2017\RoomQuest\app\src\main\AndroidManifest.xml:12:22-64
application
ADDED from C:\Users\cseuser\Desktop\CQAndroid\Fall 2017\RoomQuest\app\src\main\AndroidManifest.xml:14:5-45:19
MERGED from [com.android.support:design:25.1.0] C:\Users\cseuser\.gradle\caches\transforms-1\files-1.1\design-25.1.0.aar\6cbe9dd9380f7fd58a70fe8e6e1ebc6a\AndroidManifest.xml:25:5-20
MERGED from [com.android.support:design:25.1.0] C:\Users\cseuser\.gradle\caches\transforms-1\files-1.1\design-25.1.0.aar\6cbe9dd9380f7fd58a70fe8e6e1ebc6a\AndroidManifest.xml:25:5-20
MERGED from [com.android.support:appcompat-v7:25.1.0] C:\Users\cseuser\.gradle\caches\transforms-1\files-1.1\appcompat-v7-25.1.0.aar\cc20c45ed3b4fbc66ee38ab1bd992488\AndroidManifest.xml:25:5-20
MERGED from [com.android.support:appcompat-v7:25.1.0] C:\Users\cseuser\.gradle\caches\transforms-1\files-1.1\appcompat-v7-25.1.0.aar\cc20c45ed3b4fbc66ee38ab1bd992488\AndroidManifest.xml:25:5-20
MERGED from [com.esri.arcgis.android:arcgis-android:10.2.8-1] C:\Users\cseuser\.gradle\caches\transforms-1\files-1.1\arcgis-android-10.2.8-1.aar\641591f83dcec09e2f4cfa36fff355eb\AndroidManifest.xml:11:5-20
MERGED from [com.esri.arcgis.android:arcgis-android:10.2.8-1] C:\Users\cseuser\.gradle\caches\transforms-1\files-1.1\arcgis-android-10.2.8-1.aar\641591f83dcec09e2f4cfa36fff355eb\AndroidManifest.xml:11:5-20
MERGED from [com.google.android.gms:play-services-appindexing:8.1.0] C:\Users\cseuser\.gradle\caches\transforms-1\files-1.1\play-services-appindexing-8.1.0.aar\595b3377ce8de38b663d532b04369f5b\AndroidManifest.xml:19:5-20
MERGED from [com.google.android.gms:play-services-appindexing:8.1.0] C:\Users\cseuser\.gradle\caches\transforms-1\files-1.1\play-services-appindexing-8.1.0.aar\595b3377ce8de38b663d532b04369f5b\AndroidManifest.xml:19:5-20
MERGED from [com.android.support:animated-vector-drawable:25.1.0] C:\Users\cseuser\.gradle\caches\transforms-1\files-1.1\animated-vector-drawable-25.1.0.aar\a5aa2d1b8c69a69d85aabba80d6b620c\AndroidManifest.xml:22:5-20
MERGED from [com.android.support:animated-vector-drawable:25.1.0] C:\Users\cseuser\.gradle\caches\transforms-1\files-1.1\animated-vector-drawable-25.1.0.aar\a5aa2d1b8c69a69d85aabba80d6b620c\AndroidManifest.xml:22:5-20
MERGED from [com.android.support:support-vector-drawable:25.1.0] C:\Users\cseuser\.gradle\caches\transforms-1\files-1.1\support-vector-drawable-25.1.0.aar\a7393c21d2870115ac20bd7b9b7eecc9\AndroidManifest.xml:23:5-20
MERGED from [com.android.support:support-vector-drawable:25.1.0] C:\Users\cseuser\.gradle\caches\transforms-1\files-1.1\support-vector-drawable-25.1.0.aar\a7393c21d2870115ac20bd7b9b7eecc9\AndroidManifest.xml:23:5-20
MERGED from [com.android.support:transition:25.1.0] C:\Users\cseuser\.gradle\caches\transforms-1\files-1.1\transition-25.1.0.aar\997892130ecd86d39adbdd7438dd0c13\AndroidManifest.xml:22:5-20
MERGED from [com.android.support:transition:25.1.0] C:\Users\cseuser\.gradle\caches\transforms-1\files-1.1\transition-25.1.0.aar\997892130ecd86d39adbdd7438dd0c13\AndroidManifest.xml:22:5-20
MERGED from [com.google.android.gms:play-services-basement:8.1.0] C:\Users\cseuser\.gradle\caches\transforms-1\files-1.1\play-services-basement-8.1.0.aar\85188ffc6afdc7065ac8076c9a8e88c6\AndroidManifest.xml:20:5-24:19
MERGED from [com.google.android.gms:play-services-basement:8.1.0] C:\Users\cseuser\.gradle\caches\transforms-1\files-1.1\play-services-basement-8.1.0.aar\85188ffc6afdc7065ac8076c9a8e88c6\AndroidManifest.xml:20:5-24:19
MERGED from [com.android.support:support-v4:25.1.0] C:\Users\cseuser\.gradle\caches\transforms-1\files-1.1\support-v4-25.1.0.aar\a555bc9a83eec7ab84e7fdc31b9fd982\AndroidManifest.xml:25:5-20
MERGED from [com.android.support:support-v4:25.1.0] C:\Users\cseuser\.gradle\caches\transforms-1\files-1.1\support-v4-25.1.0.aar\a555bc9a83eec7ab84e7fdc31b9fd982\AndroidManifest.xml:25:5-20
MERGED from [com.android.support:support-fragment:25.1.0] C:\Users\cseuser\.gradle\caches\transforms-1\files-1.1\support-fragment-25.1.0.aar\55696e2987c1c5b2839fc451cdf687ae\AndroidManifest.xml:25:5-20
MERGED from [com.android.support:support-fragment:25.1.0] C:\Users\cseuser\.gradle\caches\transforms-1\files-1.1\support-fragment-25.1.0.aar\55696e2987c1c5b2839fc451cdf687ae\AndroidManifest.xml:25:5-20
MERGED from [com.android.support:support-core-ui:25.1.0] C:\Users\cseuser\.gradle\caches\transforms-1\files-1.1\support-core-ui-25.1.0.aar\1bba3bc5521d7c12dbb3de049e61aee9\AndroidManifest.xml:25:5-20
MERGED from [com.android.support:support-core-ui:25.1.0] C:\Users\cseuser\.gradle\caches\transforms-1\files-1.1\support-core-ui-25.1.0.aar\1bba3bc5521d7c12dbb3de049e61aee9\AndroidManifest.xml:25:5-20
MERGED from [com.android.support:support-media-compat:25.1.0] C:\Users\cseuser\.gradle\caches\transforms-1\files-1.1\support-media-compat-25.1.0.aar\778ff278e6adfd6b8ffa101001a9efce\AndroidManifest.xml:25:5-20
MERGED from [com.android.support:support-media-compat:25.1.0] C:\Users\cseuser\.gradle\caches\transforms-1\files-1.1\support-media-compat-25.1.0.aar\778ff278e6adfd6b8ffa101001a9efce\AndroidManifest.xml:25:5-20
MERGED from [com.android.support:support-core-utils:25.1.0] C:\Users\cseuser\.gradle\caches\transforms-1\files-1.1\support-core-utils-25.1.0.aar\7091f4269c4068db701f89d1d9652b0c\AndroidManifest.xml:25:5-20
MERGED from [com.android.support:support-core-utils:25.1.0] C:\Users\cseuser\.gradle\caches\transforms-1\files-1.1\support-core-utils-25.1.0.aar\7091f4269c4068db701f89d1d9652b0c\AndroidManifest.xml:25:5-20
MERGED from [com.android.support:support-compat:25.1.0] C:\Users\cseuser\.gradle\caches\transforms-1\files-1.1\support-compat-25.1.0.aar\9eaa915e09e6fb698761c53871eba227\AndroidManifest.xml:25:5-20
MERGED from [com.android.support:support-compat:25.1.0] C:\Users\cseuser\.gradle\caches\transforms-1\files-1.1\support-compat-25.1.0.aar\9eaa915e09e6fb698761c53871eba227\AndroidManifest.xml:25:5-20
	android:label
		ADDED from C:\Users\cseuser\Desktop\CQAndroid\Fall 2017\RoomQuest\app\src\main\AndroidManifest.xml:17:9-41
	android:icon
		ADDED from C:\Users\cseuser\Desktop\CQAndroid\Fall 2017\RoomQuest\app\src\main\AndroidManifest.xml:16:9-43
	android:allowBackup
		ADDED from C:\Users\cseuser\Desktop\CQAndroid\Fall 2017\RoomQuest\app\src\main\AndroidManifest.xml:15:9-35
	android:theme
		ADDED from C:\Users\cseuser\Desktop\CQAndroid\Fall 2017\RoomQuest\app\src\main\AndroidManifest.xml:18:9-40
activity#roomquest.cse.csusb.edu.roomquest.SplashScreen
ADDED from C:\Users\cseuser\Desktop\CQAndroid\Fall 2017\RoomQuest\app\src\main\AndroidManifest.xml:21:9-30:20
	android:screenOrientation
		ADDED from C:\Users\cseuser\Desktop\CQAndroid\Fall 2017\RoomQuest\app\src\main\AndroidManifest.xml:24:13-49
	android:configChanges
		ADDED from C:\Users\cseuser\Desktop\CQAndroid\Fall 2017\RoomQuest\app\src\main\AndroidManifest.xml:23:13-66
	android:theme
		ADDED from C:\Users\cseuser\Desktop\CQAndroid\Fall 2017\RoomQuest\app\src\main\AndroidManifest.xml:25:13-69
	android:name
		ADDED from C:\Users\cseuser\Desktop\CQAndroid\Fall 2017\RoomQuest\app\src\main\AndroidManifest.xml:22:13-41
intent-filter#android.intent.action.MAIN+android.intent.category.LAUNCHER
ADDED from C:\Users\cseuser\Desktop\CQAndroid\Fall 2017\RoomQuest\app\src\main\AndroidManifest.xml:26:13-29:29
action#android.intent.action.MAIN
ADDED from C:\Users\cseuser\Desktop\CQAndroid\Fall 2017\RoomQuest\app\src\main\AndroidManifest.xml:27:17-69
	android:name
		ADDED from C:\Users\cseuser\Desktop\CQAndroid\Fall 2017\RoomQuest\app\src\main\AndroidManifest.xml:27:25-66
category#android.intent.category.LAUNCHER
ADDED from C:\Users\cseuser\Desktop\CQAndroid\Fall 2017\RoomQuest\app\src\main\AndroidManifest.xml:28:17-77
	android:name
		ADDED from C:\Users\cseuser\Desktop\CQAndroid\Fall 2017\RoomQuest\app\src\main\AndroidManifest.xml:28:27-74
activity#roomquest.cse.csusb.edu.roomquest.MainActivity
ADDED from C:\Users\cseuser\Desktop\CQAndroid\Fall 2017\RoomQuest\app\src\main\AndroidManifest.xml:32:9-44:20
	android:screenOrientation
		ADDED from C:\Users\cseuser\Desktop\CQAndroid\Fall 2017\RoomQuest\app\src\main\AndroidManifest.xml:36:13-49
	android:label
		ADDED from C:\Users\cseuser\Desktop\CQAndroid\Fall 2017\RoomQuest\app\src\main\AndroidManifest.xml:34:13-45
	android:configChanges
		ADDED from C:\Users\cseuser\Desktop\CQAndroid\Fall 2017\RoomQuest\app\src\main\AndroidManifest.xml:35:13-66
	android:name
		ADDED from C:\Users\cseuser\Desktop\CQAndroid\Fall 2017\RoomQuest\app\src\main\AndroidManifest.xml:33:13-41
intent-filter#.MainActivity+android.intent.category.DEFAULT
ADDED from C:\Users\cseuser\Desktop\CQAndroid\Fall 2017\RoomQuest\app\src\main\AndroidManifest.xml:40:13-43:29
action#roomquest.cse.csusb.edu.roomquest.MainActivity
ADDED from C:\Users\cseuser\Desktop\CQAndroid\Fall 2017\RoomQuest\app\src\main\AndroidManifest.xml:41:17-56
	android:name
		ADDED from C:\Users\cseuser\Desktop\CQAndroid\Fall 2017\RoomQuest\app\src\main\AndroidManifest.xml:41:25-53
category#android.intent.category.DEFAULT
ADDED from C:\Users\cseuser\Desktop\CQAndroid\Fall 2017\RoomQuest\app\src\main\AndroidManifest.xml:42:17-76
	android:name
		ADDED from C:\Users\cseuser\Desktop\CQAndroid\Fall 2017\RoomQuest\app\src\main\AndroidManifest.xml:42:27-73
uses-sdk
INJECTED from C:\Users\cseuser\Desktop\CQAndroid\Fall 2017\RoomQuest\app\src\main\AndroidManifest.xml reason: use-sdk injection requested
INJECTED from C:\Users\cseuser\Desktop\CQAndroid\Fall 2017\RoomQuest\app\src\main\AndroidManifest.xml
INJECTED from C:\Users\cseuser\Desktop\CQAndroid\Fall 2017\RoomQuest\app\src\main\AndroidManifest.xml
MERGED from [com.android.support:design:25.1.0] C:\Users\cseuser\.gradle\caches\transforms-1\files-1.1\design-25.1.0.aar\6cbe9dd9380f7fd58a70fe8e6e1ebc6a\AndroidManifest.xml:21:5-23:62
MERGED from [com.android.support:design:25.1.0] C:\Users\cseuser\.gradle\caches\transforms-1\files-1.1\design-25.1.0.aar\6cbe9dd9380f7fd58a70fe8e6e1ebc6a\AndroidManifest.xml:21:5-23:62
MERGED from [com.android.support:appcompat-v7:25.1.0] C:\Users\cseuser\.gradle\caches\transforms-1\files-1.1\appcompat-v7-25.1.0.aar\cc20c45ed3b4fbc66ee38ab1bd992488\AndroidManifest.xml:21:5-23:78
MERGED from [com.android.support:appcompat-v7:25.1.0] C:\Users\cseuser\.gradle\caches\transforms-1\files-1.1\appcompat-v7-25.1.0.aar\cc20c45ed3b4fbc66ee38ab1bd992488\AndroidManifest.xml:21:5-23:78
MERGED from [com.esri.arcgis.android:arcgis-android:10.2.8-1] C:\Users\cseuser\.gradle\caches\transforms-1\files-1.1\arcgis-android-10.2.8-1.aar\641591f83dcec09e2f4cfa36fff355eb\AndroidManifest.xml:7:5-9:41
MERGED from [com.esri.arcgis.android:arcgis-android:10.2.8-1] C:\Users\cseuser\.gradle\caches\transforms-1\files-1.1\arcgis-android-10.2.8-1.aar\641591f83dcec09e2f4cfa36fff355eb\AndroidManifest.xml:7:5-9:41
MERGED from [com.google.android.gms:play-services-appindexing:8.1.0] C:\Users\cseuser\.gradle\caches\transforms-1\files-1.1\play-services-appindexing-8.1.0.aar\595b3377ce8de38b663d532b04369f5b\AndroidManifest.xml:18:5-42
MERGED from [com.google.android.gms:play-services-appindexing:8.1.0] C:\Users\cseuser\.gradle\caches\transforms-1\files-1.1\play-services-appindexing-8.1.0.aar\595b3377ce8de38b663d532b04369f5b\AndroidManifest.xml:18:5-42
MERGED from [com.android.support:animated-vector-drawable:25.1.0] C:\Users\cseuser\.gradle\caches\transforms-1\files-1.1\animated-vector-drawable-25.1.0.aar\a5aa2d1b8c69a69d85aabba80d6b620c\AndroidManifest.xml:20:5-44
MERGED from [com.android.support:animated-vector-drawable:25.1.0] C:\Users\cseuser\.gradle\caches\transforms-1\files-1.1\animated-vector-drawable-25.1.0.aar\a5aa2d1b8c69a69d85aabba80d6b620c\AndroidManifest.xml:20:5-44
MERGED from [com.android.support:support-vector-drawable:25.1.0] C:\Users\cseuser\.gradle\caches\transforms-1\files-1.1\support-vector-drawable-25.1.0.aar\a7393c21d2870115ac20bd7b9b7eecc9\AndroidManifest.xml:21:5-43
MERGED from [com.android.support:support-vector-drawable:25.1.0] C:\Users\cseuser\.gradle\caches\transforms-1\files-1.1\support-vector-drawable-25.1.0.aar\a7393c21d2870115ac20bd7b9b7eecc9\AndroidManifest.xml:21:5-43
MERGED from [com.android.support:recyclerview-v7:25.1.0] C:\Users\cseuser\.gradle\caches\transforms-1\files-1.1\recyclerview-v7-25.1.0.aar\f6ddbe1b9817e9e3a69492cafa44f84e\AndroidManifest.xml:20:5-43
MERGED from [com.android.support:recyclerview-v7:25.1.0] C:\Users\cseuser\.gradle\caches\transforms-1\files-1.1\recyclerview-v7-25.1.0.aar\f6ddbe1b9817e9e3a69492cafa44f84e\AndroidManifest.xml:20:5-43
MERGED from [com.android.support:transition:25.1.0] C:\Users\cseuser\.gradle\caches\transforms-1\files-1.1\transition-25.1.0.aar\997892130ecd86d39adbdd7438dd0c13\AndroidManifest.xml:20:5-44
MERGED from [com.android.support:transition:25.1.0] C:\Users\cseuser\.gradle\caches\transforms-1\files-1.1\transition-25.1.0.aar\997892130ecd86d39adbdd7438dd0c13\AndroidManifest.xml:20:5-44
MERGED from [com.google.android.gms:play-services-basement:8.1.0] C:\Users\cseuser\.gradle\caches\transforms-1\files-1.1\play-services-basement-8.1.0.aar\85188ffc6afdc7065ac8076c9a8e88c6\AndroidManifest.xml:18:5-42
MERGED from [com.google.android.gms:play-services-basement:8.1.0] C:\Users\cseuser\.gradle\caches\transforms-1\files-1.1\play-services-basement-8.1.0.aar\85188ffc6afdc7065ac8076c9a8e88c6\AndroidManifest.xml:18:5-42
MERGED from [com.android.support:support-v4:25.1.0] C:\Users\cseuser\.gradle\caches\transforms-1\files-1.1\support-v4-25.1.0.aar\a555bc9a83eec7ab84e7fdc31b9fd982\AndroidManifest.xml:21:5-23:54
MERGED from [com.android.support:support-v4:25.1.0] C:\Users\cseuser\.gradle\caches\transforms-1\files-1.1\support-v4-25.1.0.aar\a555bc9a83eec7ab84e7fdc31b9fd982\AndroidManifest.xml:21:5-23:54
MERGED from [com.android.support:support-fragment:25.1.0] C:\Users\cseuser\.gradle\caches\transforms-1\files-1.1\support-fragment-25.1.0.aar\55696e2987c1c5b2839fc451cdf687ae\AndroidManifest.xml:21:5-23:60
MERGED from [com.android.support:support-fragment:25.1.0] C:\Users\cseuser\.gradle\caches\transforms-1\files-1.1\support-fragment-25.1.0.aar\55696e2987c1c5b2839fc451cdf687ae\AndroidManifest.xml:21:5-23:60
MERGED from [com.android.support:support-core-ui:25.1.0] C:\Users\cseuser\.gradle\caches\transforms-1\files-1.1\support-core-ui-25.1.0.aar\1bba3bc5521d7c12dbb3de049e61aee9\AndroidManifest.xml:21:5-23:58
MERGED from [com.android.support:support-core-ui:25.1.0] C:\Users\cseuser\.gradle\caches\transforms-1\files-1.1\support-core-ui-25.1.0.aar\1bba3bc5521d7c12dbb3de049e61aee9\AndroidManifest.xml:21:5-23:58
MERGED from [com.android.support:support-media-compat:25.1.0] C:\Users\cseuser\.gradle\caches\transforms-1\files-1.1\support-media-compat-25.1.0.aar\778ff278e6adfd6b8ffa101001a9efce\AndroidManifest.xml:21:5-23:63
MERGED from [com.android.support:support-media-compat:25.1.0] C:\Users\cseuser\.gradle\caches\transforms-1\files-1.1\support-media-compat-25.1.0.aar\778ff278e6adfd6b8ffa101001a9efce\AndroidManifest.xml:21:5-23:63
MERGED from [com.android.support:support-core-utils:25.1.0] C:\Users\cseuser\.gradle\caches\transforms-1\files-1.1\support-core-utils-25.1.0.aar\7091f4269c4068db701f89d1d9652b0c\AndroidManifest.xml:21:5-23:61
MERGED from [com.android.support:support-core-utils:25.1.0] C:\Users\cseuser\.gradle\caches\transforms-1\files-1.1\support-core-utils-25.1.0.aar\7091f4269c4068db701f89d1d9652b0c\AndroidManifest.xml:21:5-23:61
MERGED from [com.android.support:support-compat:25.1.0] C:\Users\cseuser\.gradle\caches\transforms-1\files-1.1\support-compat-25.1.0.aar\9eaa915e09e6fb698761c53871eba227\AndroidManifest.xml:21:5-23:58
MERGED from [com.android.support:support-compat:25.1.0] C:\Users\cseuser\.gradle\caches\transforms-1\files-1.1\support-compat-25.1.0.aar\9eaa915e09e6fb698761c53871eba227\AndroidManifest.xml:21:5-23:58
INJECTED from C:\Users\cseuser\Desktop\CQAndroid\Fall 2017\RoomQuest\app\src\main\AndroidManifest.xml
INJECTED from C:\Users\cseuser\Desktop\CQAndroid\Fall 2017\RoomQuest\app\src\main\AndroidManifest.xml
	tools:overrideLibrary
		ADDED from [com.android.support:design:25.1.0] C:\Users\cseuser\.gradle\caches\transforms-1\files-1.1\design-25.1.0.aar\6cbe9dd9380f7fd58a70fe8e6e1ebc6a\AndroidManifest.xml:23:9-59
	android:targetSdkVersion
		INJECTED from C:\Users\cseuser\Desktop\CQAndroid\Fall 2017\RoomQuest\app\src\main\AndroidManifest.xml
		ADDED from C:\Users\cseuser\Desktop\CQAndroid\Fall 2017\RoomQuest\app\src\main\AndroidManifest.xml
		INJECTED from C:\Users\cseuser\Desktop\CQAndroid\Fall 2017\RoomQuest\app\src\main\AndroidManifest.xml
	android:minSdkVersion
		INJECTED from C:\Users\cseuser\Desktop\CQAndroid\Fall 2017\RoomQuest\app\src\main\AndroidManifest.xml
		ADDED from C:\Users\cseuser\Desktop\CQAndroid\Fall 2017\RoomQuest\app\src\main\AndroidManifest.xml
		INJECTED from C:\Users\cseuser\Desktop\CQAndroid\Fall 2017\RoomQuest\app\src\main\AndroidManifest.xml
meta-data#com.google.android.gms.version
ADDED from [com.google.android.gms:play-services-basement:8.1.0] C:\Users\cseuser\.gradle\caches\transforms-1\files-1.1\play-services-basement-8.1.0.aar\85188ffc6afdc7065ac8076c9a8e88c6\AndroidManifest.xml:21:9-23:69
	android:value
		ADDED from [com.google.android.gms:play-services-basement:8.1.0] C:\Users\cseuser\.gradle\caches\transforms-1\files-1.1\play-services-basement-8.1.0.aar\85188ffc6afdc7065ac8076c9a8e88c6\AndroidManifest.xml:23:13-66
	android:name
		ADDED from [com.google.android.gms:play-services-basement:8.1.0] C:\Users\cseuser\.gradle\caches\transforms-1\files-1.1\play-services-basement-8.1.0.aar\85188ffc6afdc7065ac8076c9a8e88c6\AndroidManifest.xml:22:13-58
